{
  "type": "object",
  "properties": {
    "code": {
      "type": "number",
      "pattern": "/\w/"
    },
    "message": {
      "type": "string",
      "patterni": "/success/"
    },
    "data": {
      "type": "object",
      "properties": {
        "totalRows": 12,
        "pageSize": 10,
        "currentPage": 1,
        "totalPages": 2,
        "list": {
          "type": "array",
          "maxItems": 10,
          "minItems": 10,
          "items": {
            "type": "object",
            "properties": {
              "orderId": {
                "type": "integer",
                "faker": "random.number"
              },
              "orderName": {
                "type": "string",
                "faker": "company.companyName"
              },
              "isUrgent": {
                "type": "boolean",
                "faker": "random.boolean"
              },
              "userName": {
                "type": "string",
                "faker": "name.firstName"
              },
              "orderType": {
                "type": "integer",
                "patterni": "(1|2|3)"
              },
              "userEmail": {
                "type": "string",
                "faker": "internet.email"
              },
              "test": 1
            }
          }
        }
      }
    }
  }
}


